printf-stdarg.c:33:13:printchar	16	static
printf-stdarg.c:50:12:prints	48	static
printf-stdarg.c:83:12:printi	64	static
printf-stdarg.c:126:12:print	64	static
printf-stdarg.c:190:5:my_printf	16	static
printf-stdarg.c:198:5:my_sprintf	28	static
